{
    "KPlugin": {
        "BugReportUrl": "https://bugs.kde.org/enter_bug.cgi?product=systemsettings&component=kcm_kwineffects",
        "Description": "Configure compositor settings for desktop effects",
        "Description[ar]": "اضبط إعدادات المركب لتأثيرات سطح المكتب",
        "Description[az]": "İş masası effektləri üçün düzücünün ayarlarını tənzimləyin",
        "Description[be]": "Наладжванне сродку кампазітынгу для эфектаў працоўнага стала",
        "Description[bg]": "Конфигуриране на настройките на композитора за ефекти на работния плот",
        "Description[ca@valencia]": "Configura la configuració del compositor per als efectes de l'escriptori",
        "Description[ca]": "Configura l'arranjament del compositor per als efectes d'escriptori",
        "Description[cs]": "Nastavení kompozitoru pro efekty pracovní plochy",
        "Description[da]": "Konfigurér kompositørindstillinger for skrivebordseffekter",
        "Description[de]": "Compositor-Einstellungen für Arbeitsflächen-Effekte einrichten",
        "Description[en_GB]": "Configure compositor settings for desktop effects",
        "Description[eo]": "Agordi kompostajn agordojn por labortablaj efikoj",
        "Description[es]": "Configurar las preferencias del compositor para los efectos del escritorio",
        "Description[et]": "Komposiitori seadistamine töölauaefektide tarbeks",
        "Description[eu]": "Konfiguratu konposatzailearen ezarpenak mahaigaineko efektuetarako",
        "Description[fi]": "Koostamisasetukset työpöytätehosteille",
        "Description[fr]": "Configurer les paramètres du compositeur pour les effets de bureau",
        "Description[gl]": "Configurar o compositor para os efectos de escritorio.",
        "Description[he]": "הגדרת אפקטים של שולחן עבודה בהגדרות המנהל החלונאי",
        "Description[hu]": "A kompozitor beállításainak konfigurálása az asztali effektusokhoz",
        "Description[ia]": "Configura preferentias de compositor pro le effectos de scriptorio",
        "Description[id]": "Konfigurasikan pengaturan kompositor untuk efek desktop",
        "Description[is]": "Grunnstilla myndsmiðsstillingar fyrir skjáborðsbrellur",
        "Description[it]": "Configura impostazioni del compositore per gli effetti del desktop",
        "Description[ja]": "デスクトップ効果のためのコンポジタ設定",
        "Description[ka]": "კომპოზიტორის მორგება სამუშაო მაგიდის ეფექტებისთვის",
        "Description[ko]": "데스크톱 효과에 사용되는 컴포지터 설정",
        "Description[lt]": "Konfigūruoti darbalaukio efektams skirtas kompozitoriaus nuostatas",
        "Description[lv]": "Konfigurēt kompozitora iestatījumus darbvirsmas efektiem",
        "Description[nl]": "Instellingen van compositor configureren voor bureaubladeffecten",
        "Description[nn]": "Samansetjarinnstillingar for skrivebordseffektar",
        "Description[pl]": "Ustawienia kompozytora dla efektów pulpitu",
        "Description[pt]": "Configurar as definições dos efeitos do ecrã do compositor",
        "Description[pt_BR]": "Defina as configurações do compositor para os efeitos da área de trabalho",
        "Description[ro]": "Configurează opțiunile compozitorului pentru efecte de birou",
        "Description[ru]": "Настройка модуля обеспечения эффектов рабочего стола",
        "Description[sa]": "डेस्कटॉप् इफेक्ट्स् कृते कम्पोजिटर सेटिंग्स् विन्यस्यताम्",
        "Description[sk]": "Nastavenia kompozítora pre efekty plochy",
        "Description[sl]": "Prilagodite nastavitve skladanja za učinke namizja",
        "Description[sv]": "Anpassa sammansättningsinställningar för skrivbordseffekter",
        "Description[ta]": "பணிமேடை அசைவூட்டங்களுக்கான சாளரநிரல் அமைப்புகளை மாற்றுங்கள்",
        "Description[tr]": "Masaüstü efektleri için bileşikleştirici ayarlarını yapılandır",
        "Description[uk]": "Налаштовування параметрів засобу композиції для ефектів стільниці",
        "Description[vi]": "Cấu hình các thiết lập trình kết hợp cho các hiệu ứng bàn làm việc",
        "Description[x-test]": "xxConfigure compositor settings for desktop effectsxx",
        "Description[zh_CN]": "配置桌面的显示特效合成器设置",
        "Description[zh_TW]": "設定合成器的桌面效果選項",
        "FormFactors": [
            "desktop",
            "tablet"
        ],
        "Icon": "preferences-desktop-effects",
        "Name": "Desktop Effects",
        "Name[ar]": "تأثيرات سطح المكتب",
        "Name[az]": "İş masası effektləri",
        "Name[be]": "Эфекты працоўнага стала",
        "Name[bg]": "Ефекти на работния плот",
        "Name[ca@valencia]": "Efectes de l'escriptori",
        "Name[ca]": "Efectes d'escriptori",
        "Name[cs]": "Efekty na ploše",
        "Name[da]": "Skrivebordseffekter",
        "Name[de]": "Arbeitsflächen-Effekte",
        "Name[en_GB]": "Desktop Effects",
        "Name[eo]": "Labortablo-Efikoj",
        "Name[es]": "Efectos del escritorio",
        "Name[et]": "Töölauaefektid",
        "Name[eu]": "Mahaigaineko efektuak",
        "Name[fi]": "Työpöytätehosteet",
        "Name[fr]": "Effets de bureau",
        "Name[gl]": "Efectos de escritorio",
        "Name[he]": "אפקטים של שולחן עבודה",
        "Name[hu]": "Asztali effektusok",
        "Name[ia]": "Effectos de scriptorio",
        "Name[id]": "Efek Desktop",
        "Name[is]": "Skjáborðsbrellur",
        "Name[it]": "Effetti del desktop",
        "Name[ja]": "デスクトップ効果",
        "Name[ka]": "სამუშაო მაგიდის ეფექტები",
        "Name[ko]": "데스크톱 효과",
        "Name[lt]": "Darbalaukio efektai",
        "Name[lv]": "Darbvirsmu efekti",
        "Name[nl]": "Bureaubladeffecten",
        "Name[nn]": "Skrivebords­effektar",
        "Name[pl]": "Efekty pulpitu",
        "Name[pt]": "Efeitos do Ecrã",
        "Name[pt_BR]": "Efeitos da área de trabalho",
        "Name[ro]": "Efecte de birou",
        "Name[ru]": "Эффекты рабочего стола",
        "Name[sa]": "डेस्कटॉप प्रभाव",
        "Name[sk]": "Efekty plochy",
        "Name[sl]": "Namizni učinki",
        "Name[sv]": "Skrivbordseffekter",
        "Name[ta]": "பணிமேடை அசைவூட்டங்கள்",
        "Name[tr]": "Masaüstü Efektleri",
        "Name[uk]": "Ефекти стільниці",
        "Name[vi]": "Hiệu ứng bàn làm việc",
        "Name[x-test]": "xxDesktop Effectsxx",
        "Name[zh_CN]": "桌面特效",
        "Name[zh_TW]": "桌面效果"
    },
    "X-DocPath": "kcontrol/kwineffects/index.html",
    "X-KDE-Keywords": "kwin,window,manager,effect,3D effects,2D effects,graphical effects,desktop effects,animations,various animations,window management effects,window switching effect,desktop switching effect,animations,desktop animations,drivers,driver settings,rendering,render,invert effect,looking glass effect,magnifier effect,snap helper effect,track mouse effect,zoom effect,blur effect,fade effect,fade desktop effect,fall apart effect,glide effect,highlight window effect,login effect,logout effect,magic lamp effect,minimize animation effect,mouse mark effect,scale effect,screenshot effect,sheet effect,slide effect,sliding popups effect,thumbnail aside effect,translucency,translucency effect,transparency,window geometry effect,wobbly windows effect,startup feedback effect,dialog parent effect,dim inactive effect,dim screen effect,slide back effect,eye candy,candy,show FPS effect,show paint effect,cover switch effect,desktop cube effect,desktop cube animation effect,desktop grid effect,flip switch effect,background contrast effect,bling,fading,movement,motion,overview windows effect,accessibility,cursor,pointer,mouse,hide cursor,hide cursor effect,hide pointer,hide pointer effect,hide mouse,hide mouse effect",
    "X-KDE-Keywords[ar]": "كوين،نافذة،مدير،تأثير،تأثيرات ثلاثية الأبعاد،تأثيرات ثنائية الأبعاد،تأثيرات رسومية،تأثيرات سطح المكتب،رسوم متحركة،رسوم متحركة مختلفة،تأثيرات إدارة النوافذ،تأثير تبديل النوافذ،تأثير تبديل سطح المكتب،رسوم متحركة،رسوم متحركة لسطح المكتب،برامج تشغيل،إعدادات برنامج التشغيل،عرض،عرض ,تأثير عكسي,تأثير الزجاج,تأثير المكبر,تأثير مساعد المفاجئة,تأثير الفأرة المسار,تأثير التكبير/التصغير,تأثير التمويه,تأثير التلاشي,تأثير تلاشي سطح المكتب,تأثير الانهيار,تأثير الانزلاق,تأثير النافذة المميزة,تأثير تسجيل الدخول,تأثير تسجيل الخروج,سحر تأثير المصباح,تقليل تأثير الحركة,تأثير علامة الفأرة,تأثير المقياس,تأثير لقطة الشاشة,تأثير الورقة,تأثير الشريحة,تأثير النوافذ المنبثقة المنزلقة,تأثير الصورة المصغرة جانبًا,الشفافية,تأثير الشفافية,الشفافية,تأثير هندسة النافذة,تأثير النوافذ المتذبذبة,تأثير ردود الفعل عند بدء التشغيل,تأثير الحوار الأصلي,تأثير خافت غير نشط,تأثير الشاشة الخافت,تأثير الشريحة الخلفية,العين حلوى,حلوى,إظهار تأثير FPS,إظهار تأثير الطلاء,تأثير تبديل الغطاء,تأثير مكعب سطح المكتب,تأثير رسوم متحركة لمكعب سطح المكتب,تأثير شبكة سطح المكتب,تأثير تبديل,تأثير تباين الخلفية,بريق,بهتان,حركة,حركة,تأثير نظرة عامة على النوافذ,إمكانية الوصول,مؤشر,مؤشر,فأر,إخفاء المؤشر,إخفاء تأثير المؤشر,إخفاء المؤشر,إخفاء تأثير المؤشر,إخفاء الفأرة,إخفاء تأثير الفأرة",
    "X-KDE-Keywords[ca]": "kwin,finestra,gestor,efecte,efectes 3D,efectes 2D,efectes gràfics,efectes d'escriptori,animacions,animacions diverses,efectes de gestió de finestres,efecte de commutació de finestres,efecte de commutació d'escriptori,animacions,animacions d'escriptori,controladors,configuració de controladors,efecte d'inversió,efecte «looking glass»,efecte de lupa,efecte d'ajuda d'ajust,efecte de seguiment de ratolí,efecte de zoom,efecte de difuminat,efecte d'esvaïment,efecte d'esvaïment d'escriptori,efecte de trencament,efecte de lliscament,efecte de ressaltat de finestra,efecte d'inici de sessió,efecte de sortida de sessió,efecte de làmpada màgica,efecte d'animació de minimització,efecte de marca de ratolí,efecte d'escala,efecte de captura de pantalla,efecte de full,efecte de missatges emergents desplaçant-se,efecte de miniatures al costat,translucidesa,efecte de translucidesa,transparència,efecte de geometria de les finestres,efecte de finestres sacsejades,efecte de retroacció en iniciar,efecte de diàleg principal,efecte d'enfosquir les inactives,efecte de pantalla enfosquida,efecte de lliscar cap enrere,vistositat,vistós,efecte de mostrar els FPS,efecte de mostrar el pintat,efecte de canvi de tapa,efecte d'animació de cub d'escriptori,efecte de quadrícula d'escriptori,efecte de canvi en roda,efecte de contrast de fons,bling,esvaïment,moviment,efecte de vista general de finestres,accessibilitat,cursor,punter,ratolí,oculta cursor,efecte d'ocultació de cursor",
    "X-KDE-Keywords[es]": "kwin,ventana,gestor,efecto,efectos 3D,efectos 2D,efectos gráficos,efectos del escritorio,animaciones,animaciones varias,animaciones diversas,efectos de gestión de ventanas,efecto de cambio de ventana,efecto de selección de ventana,efecto de cambio de escritorio,efecto de selección de escritorio,animaciones del escritorio,controladores,preferencias del controlador,renderizado,renderizar,efecto de invertir,efecto de espejo,efecto de lupa,efecto auxiliar de ajuste,efecto de seguimiento del ratón,efecto de ampliación,efecto de desenfoque,efecto de atenuación,efecto de desvanecimiento,efecto de desvanecer el escritorio,defecto de desmoronar,efecto de planeo,efecto de resaltar ventana,efecto de inicio de sesión,efecto de cierre de sesión,efecto de lámpara mágica,efecto de lámpara maravillosa,efecto de animación de minimización,efecto de marcar con el ratón,efecto de escalado,efecto de captura de pantalla,efecto de hoja,efecto de deslizar,efecto de deslizar ventanas emergentes,efecto de miniaturas laterales,transparencia,transparente,efecto de transparencia,efecto de geometría de la ventana,efecto de ventanas tambaleantes,efecto de notificación de lanzamiento,efecto de diálogo padre,efecto de oscurecer inactiva,efecto de atenuar inactiva,efecto de desenfocar inactiva,efecto de oscurecer pantalla,efecto de atenuar pantalla,efecto de desenfocar pantalla,efecto de deslizar hacia atrás,atractivo,efecto de mostrar FPS,efecto de mostrar pintado,efecto de selección de carátulas,efecto de selección de portadas,efecto del cubo del escritorio,efecto de animación del cubo del escritorio,efecto de la cuadrícula de escritorios,efecto de selección de volteo,efecto de volteo,efecto de contraste del fondo,desvanecimiento,desvanecer,atenuar,atenuación,movimiento,efecto de resumen de ventanas,efecto de vista general de ventanas,accesibilidad,cursor,puntero,ratón,ocultar el cursor,efecto de ocultar el cursor,ocultar el puntero,efecto de ocultar el puntero,ocultar el ratón,efecto de ocultar el ratón",
    "X-KDE-Keywords[eu]": "kwin,leihoa,kudeatzailea,efektua,3D efektuak,2D efektuak,efektu grafikoak,mahaigaineko efektuak,animazioak,animazio batzuk,leihoak kudeatzeko animazioak,leihoak aldatzeko efektua,mahaigaina aldatzeko efektua,animazioak,mahaigaineko animazioak,gidariak,gidari-ezarpenak,errendatzea,errendatu,alderantzizko efektua,lupa efektua,handiagotze efektua,atxikitzeko efektu laguntzailea,saguaren jarraipen efektua,zoom efektua,lausotze efektua,koloregabetze efektua,mahaigaina koloregabetzeko efektua,puskatze efektua,irristatze efektua,leihoa nabarmentzeko efektua,saioan sartzeko efektua,saiotik irteteko efektua,lanpara magikoa efektua,ikonotzeko animazio efektua,saguaren arrasto efektua,eskalatze efektua,pantaila-argazki efektua,orri efektua,irristatze efektua,gainerakor irristakor efektua,koadro txikiak alboan efektua,zeharrargitasuna,zeharrargitasun efektua,gardentasuna,leihoaren geometria efektua,leiho dardarti efektua,abiatze berrelikadura efektua,guraso elkarrizketa-koadro efektua,ahuldu ez-aktiboa efektua,ahuldu pantaila efektua,irristatu atzerantz efektua,begiaren gozagarri,gozagarria,erakutsi FPS efektua,erakutsi pintura efektua,azal aldaketa efektua,mahaigain kubo efektua,mahaigain kubo animazio efektua,mahaigain sareta efektua,etengailua sakatu efektua,atzeko planoaren kontrastea efektua,dir-dir,itzaleztatu,koloregabetu,mugimendua,higidura,leihoen ikuspegi orokor efektua,irisgarritasuna,kurtsorea, erakuslea,sagua,ezkutatu sagua,sagua ezkutatzeko efektua,ezkutatu erakuslea, erakuslea ezkutatzeko efektua,ezkutatu sagua,sagua ezkutatzeko efektua ",
    "X-KDE-Keywords[fr]": "kwin, fenêtre, gestionnaire ,effet, effets 3D, effets 2D, effets visuels, effets de bureau, animations, diverses animations, effets de gestion de fenêtres, effet de basculement de fenêtres, effet de basculement de bureaux, animations, animations de bureaux, pilotes, configuration de pilote, rendu, réaliser un rendu, effet d'inversion, effet de miroir, effet de loupe, effet d'aide à l'aimantage, effet de suivi de souris, effet de zoom, effet de flou, effet de fondu, effet de fondu de bureaux, effet de chute en morceaux, effet de glissement, effet de mise en évidence de fenêtre, effet de connexion, effet de déconnexion, effet de lampe magique, effet de minimisation d’animation, effet de marquage de souris,  effet d’échelle, effet de copie d’écran, effet de feuille, effet de diapositive, effet de fenêtres contextuelles flottantes, effet de vignette sur le côté, translucidité, effet de translucidité, transparence, géométrie de fenêtres,  effet de fenêtres en gélatine, effet de suivi du démarrage, effet de boîte de dialogue parente, réglage d'écran inactif, réglage d'écran actif, plaisir des yeux, brillant, effet d'affichage du nombre de trames par seconde, effet d'affichage de peinture, effet de commutateur de couverture, effet de cube de bureaux, effet d'animation pour cube de bureaux, effet de grille de bureaux, effet de bouton en bascule,effet de présentation de fenêtres, effet de redimensionnent de fenêtres, effet de contraste d’arrière-plan, clignotement, estompage, mouvement, déplacement, effet d'aperçu de fenêtre, accessibilité,tuile, effet de modification de tuiles, curseur, pointeur, souris, masquer le pointeur, effet de masquage du curseur, masquer le pointeur, effet de masquage, masquer la souris, effet de masquage de la souris",
    "X-KDE-Keywords[gl]": "kwin,window,xanela,ventá,fiestra,manager,xestor,manexador,effect,efecto,3D effects,efectos 3D,2D effects,efectos 2D,graphical effects,efectos gráficos,desktop effects,efectos de escritorio,animations,animacións,various animations,window management effects,efectos do xestor de xanelas,efectos do xestor de ventás,efectos do xestos de fiestras,efectos do manexador de xanelas,efectos do manexador de ventás,efectos do manexador de fiestras,window switching effect,efecto de cambio de xanela,efecto de cambio de ventá,efecto de cambio de fiestra,desktop switching effect,efecto de cambio de escritorio,animations,animacións,desktop animations,animacións de escritorio,drivers,controladores,driver settings,configuración de controlador,configuración dos controladores,rendering,renderización,render,renderizar,invert effect,efecto de inversión,inverter un efecto,looking glass effect,efecto de lupa,magnifier effect,snap helper effect,efecto de axudante de colocación,track mouse effect,efecto de seguimento do rato,zoom effect,efecto de ampliación,blur effect,efecto borroso,fade effect,efecto de esvaer,fade desktop effect,efecto de escritorio de esvaer,fall apart effect,efecto de desfacer,glide effect,efecto de desprazar,highlight window effect,efecto de realce de xanela,efecto de realce de ventá,efecto de realce de fiestra,login effect,efecto de acceso,logout effect,efecto de saída,magic lamp effect,efecto de lámpada máxima,minimize animation effect,efecto de animación de minimizar,mouse mark effect,efecto de marca do rato,scale effect,efecto de escala,efecto de axuste de tamaño,screenshot effect,efecto de captura de pantalla,sheet effect,efecto de páxina,slide effect,efecto de esvarar,sliding popups effect,thumbnail aside effect,efecto de miniatura lateral,translucency,translúcido,translúcida,translucency effect,transparency,transparencia,window geometry effect,efecto de xeometría da xanela,efecto de xeometría da ventá,efecto de xeometría da fiestra,wobbly windows effect,efecto de xanelas flexíbeis,startup feedback effect,efecto de resposta de inicio,dialog parent effect,efecto de diálogo contedor,dim inactive effect,efecto de escurecer o inactivo,dim screen effect,efecto de escurecer a pantalla,slide back effect,efecto de esvarar cara atrás,eye candy,estética,candy,show FPS effect,efecto de amosar os FPS,efecto de FPS,show paint effect,efecto de amosar a pintura,cover switch effect,efecto de portadas,desktop cube effect,efecto de cubo,desktop cube animation effect,desktop grid effect,efecto de grade,flip switch effect,background contrast effect,fondo,contraste,bling,fading,movement,movemento,motion,overview windows effect,resumo,vista previa,vista xeral,accessibility,accesibilidade,cursor,pointer,punteiro,mouse,rato,hide cursor,agochar,ocultar,agochado,oculto,hide cursor effect,hide pointer,hide pointer effect,hide mouse,hide mouse effect",
    "X-KDE-Keywords[he]": "kwin,חלון,מנהל,אפקט,אפקטים תלת־ממדיים,אפקטים דו־ממדיים,אפקטים גרפיים,אפקטי שולחן עבודה,אנימציות,הנפשות,אנימציות שונות,הנפשות שונות,אפקטי ניהול חלונות,אפקט החלפת חלון,אפקט החלפת שולחן עבודה,אנימציות,הנפשות,אנימציות שולחן עבודה,הנפשות שולחן עבודה,מנהלי התקנים,הגדרות מנהל התקן,רינדור,עיבוד גרפי,אפקט היפוך,אפקט זכוכית מגדלת,אפקט הגדלה,אפקט עזר הצמדה,אפקט מעקב עכבר,אפקט זום,אפקט טשטוש,אפקט עמעום,אפקט עמעום שולחן עבודה,אפקט התפרקות,אפקט גלישה,אפקט הדגשת חלון,אפקט כניסה,אפקט יציאה,אפקט מנורת קסם,אפקט הנפשת מזעור,אפקט סימון עכבר,אפקט שינוי קנה מידה,אפקט צילום מסך,אפקט גיליון,אפקט החלקה,אפקט חלונות קופצים מחליקים,אפקט תמונה ממוזערת בצד,שקיפות למחצה,אפקט שקיפות למחצה,שקיפות,אפקט גאומטריית חלון,אפקט חלונות מתנודדים,אפקטמשוב הפעלה,אפקט תיבת־דו־שיח הורה,אפקט עמעום־לא־פעיל,אפקט עמעום־מסך,אפקט החלקה־לאחור,קישוטים,ממתק,אפקט הצגת־FPS,אפקט הצגת ציור,אפקט החלפת כיסוי,אפקט קוביית שולחן עבודה,אפקט הנפשת־קוביית־שולחן־עבודה,אפקט רשת שולחן עבודה,אפקטהחלפת־היפוך,אפקט הצגת־חלונות,אפקט שינוי־גודל־חלון,אפקט ניגודיות רקע,נצנוץ,דהייה,תנועה,תנועה,אפקט סקירת־חלונות,נגישות,אריח,אפקט עורך־אריחים,סמן,מצביע,עכבר,הסתרת סמן,אפקט הסתרת סמן,הסתרת מצביע,אפקט הסתרת מצביע,הסתרת עכבר,אפקט הסתרת עכבר, אפקט הצגת חלונות, אפקט עורך פריסה",
    "X-KDE-Keywords[ia]": "kwin,window,manager,effect,3D effects,2D effects,graphical effects,desktop effects,animations,various animations,window management effects,window switching effect,desktop switching effect,animations,desktop animations,drivers,driver settings,rendering,render,invert effect,looking glass effect,magnifier effect,snap helper effect,track mouse effect,zoom effect,blur effect,fade effect,fade desktop effect,fall apart effect,glide effect,highlight window effect,login effect,logout effect,magic lamp effect,minimize animation effect,mouse mark effect,scale effect,screenshot effect,sheet effect,slide effect,sliding popups effect,thumbnail aside effect,translucency,translucency effect,transparency,window geometry effect,wobbly windows effect,startup feedback effect,dialog parent effect,dim inactive effect,dim screen effect,slide back effect,eye candy,candy,show FPS effect,show paint effect,cover switch effect,desktop cube effect,desktop cube animation effect,desktop grid effect,flip switch effect,background contrast effect,bling,fading,movement,motion,overview windows effect,accessibility,cursor,pointer,mouse,hide cursor,hide cursor effect,hide pointer,hide pointer effect,hide mouse,hide mouse effect",
    "X-KDE-Keywords[ka]": "kwin,window,manager,effect,3D effects,2D effects,graphical effects,desktop effects,animations,various animations,window management effects,window switching effect,desktop switching effect,animations,desktop animations,drivers,driver settings,rendering,render,invert effect,looking glass effect,magnifier effect,snap helper effect,track mouse effect,zoom effect,blur effect,fade effect,fade desktop effect,fall apart effect,glide effect,highlight window effect,login effect,logout effect,magic lamp effect,minimize animation effect,mouse mark effect,scale effect,screenshot effect,sheet effect,slide effect,sliding popups effect,thumbnail aside effect,translucency,translucency effect,transparency,window geometry effect,wobbly windows effect,startup feedback effect,dialog parent effect,dim inactive effect,dim screen effect,slide back effect,eye candy,candy,show FPS effect,show paint effect,cover switch effect,desktop cube effect,desktop cube animation effect,desktop grid effect,flip switch effect,present windows effect,resize window effect,background contrast effect,bling,fading,movement,motion,overview windows effect,accessibility,tile,tiling editor effect,cursor,pointer,mouse,hide cursor,hide cursor effect,hide pointer,hide pointer effect,hide mouse,hide mouse effect,ეფექტები,სამუშაო მაგიდის ეფექტები",
    "X-KDE-Keywords[nl]": "kwin,venster,beheerder,effect,3D effecten,2D effecten,grafische effecten,bureaubladeffecten,animaties,verschillende animaties,vensterbeheereffecten,vensterwisselingseffect,bureaubladwisselingseffect,animaties,bureaubladanimaties,stuurprogramma's,stuurprogramma-instellingen,renderen,render,omgekeerd effect,vergrootglaseffect,vergrotingseffect,vastklik-helper-effect,muis-volgen-effect,zoomeffect,vervagingseffect,bureaubladvervagingseffect,uiteenvallen-effect,glij-effect,vensteraccentueringseffect,aanmeldeffect,afmeldeffect,magisch-lamp-effect,animatie-minimaliseren-effect,muismarkeringseffect,schaaleffect,schermafdrukeffect,papiervel-effect,dia-effect,verschuivende-popups-effect,miniaturen-opzij-effect,doorzichtigheid,doorzichtigheidseffect,transparantie,venster-geometrie-effect,wiebelende vensters effect,terugkoppeling-van-opstarten-effect,dialoogoudereffect,inactief-dimmen-effect,scherm-dimmen-effect,terug-glijden-effect,oogversiering,versiering,FPS-tonen-effect,schilderen-tonen-effect,deksel-schakelaar-effect,bureaublad-kubus-effect,bureaubladkubus-animatie-effect,bureaublad-raster-effect,schakelaar-omzetten-effect,achtergrondcontrast-effect,bling,uitdoven,verplaatsing,beweging,vensteroverzicht-effect,toegankelijkheid,cursor,aanwijzer,muis,cursor verbergen,cursor verbergen-effect,aanwijzer verbergen,aanwijzer verbergen-effect,muis verbergen,muis verbergen-effect",
    "X-KDE-Keywords[pl]": "kwin,okno,menadżer,efekt,efekty 3D,efekty 2D,efekty graficzne,efekty pulpitu,animacje,różne animacje,efekty zarządzania oknami,efekty przełączania okien,efekty przełączania pulpitów,animacje,animacje pulpitu,sterowniki,ustawienia sterowników,renderowania, efekt odwrócenia,szkło powiększające,efekt powiększenia,efekt pomocnika przyciągania, efekt śledzenia myszy,efekt przybliżenia,rozmycie,tablica,efekt eksplozji,efekt zanikania,efekt zanikania pulpitu,efekt rozpadania,efekt slajdu,efekt podświetlania okna, efekt logowania,efekt wylogowywania,efekt magicznej lampy,efekt animacji minimalizacji, efekt znacznika myszy,efekt skalowania,efekt zrzutu ekranu,efekt arkusza,efekt slajdu,efekt wysuwających się elementów wyskakujących,efekt prześwitywania,przezroczystość,efekt geometrii okna,efekt chwiejnych okien,efekt odczuć przy starcie,efekt okna rodzica,efekt przyciemniania nieaktywnych,efekt przyciemniania ekranu,efekt przesuwania do tył,cukierki dla oczu,cukierek,efekt pokazania ilości klatek na sekundę,efekt pokazywania malowania,efekt przełączania okładek,efekt  kostki pulpitu,efekt animacji kostki pulpitu,efekt siatki pulpitu,efekt przełączania przełącznikiem,efekt przedstawiania okien,efekt zmiany rozmiaru okien,efekt kontrastu tła,bling,zanikanie,ruch,ruch,efekt  przeglądu okien,dostępność,kursor,wskaźnik,mysz,ukryj kursor,efekt ukrywania kursora,ukryj wskaźnik,efekt ukrywania wskaźnika,ukryj mysz,efekt ukrywania myszy",
    "X-KDE-Keywords[sl]": "kwin,okno,upravljalnik,učinek,3D učinki,2D učinki,grafični učinki,namizni učinki,animacije,različne animacije,učinki upravljanja oken,učinek preklopa oken,učinek preklopa namizja,animacije,animacije namizja,gonilniki,nastavitve gonilnika,upodabljanje,upodobitev,obrnjeni učinek,učinek ogledala,učinek povečevalnika,učinek pomočnika za pripenjanje,učinek sledenja miški,učinek povečave,učinek zamegljenosti,učinek bledenja,učinek bledenja namizja,učinek razpadanja,učinek drsenja,učinek osvetlitve okna,učinek prijave,učinek odjave,čarovnija učinek svetilke,učinek minimiziranja animacije,učinek oznake miške,učinek merila,učinek posnetka zaslona, ​učinek lista, učinek diapozitiva, učinek drsnih pojavnih oken, stranski učinek sličice, prosojnost, učinek prosojnosti, prosojnost, učinek geometrije okna, učinek majavih oken,učinek povratne informacije ob zagonu,nadrejeni učinek pogovornega okna,učinek zatemnitve neaktivnosti,učinek zatemnjenega zaslona,učinek drsenja nazaj,bonboni,pokaži učinek FPS,pokaži učinek barve,učinek stikala na pokrovu,učinek kocke na namizju,učinek animacije kocke na namizju,učinek mreže na namizju,učinek preklopnega stikala,prisoten učinek oken,učinek spreminjanja velikosti okna,učinek kontrasta ozadja,bleščanje,bledenje,gibanje,premikanje,učinek preglednih oken,dostopnost,ploščica,učinek urejevalnika ploščic,kazalec,kazalnik,miška,skrij kazalec,skrij učinek kazalca,skrij kazalnik,skrij učinek kazalnika,skrij miško,skrij učinek miške",
    "X-KDE-Keywords[sv]": "kwin,fönster,hanterare,effekt,tredimensionella effekter,tvådimensionella effekter,grafiska effekter,skrivbordseffekter,animeringar,olika animeringar,fönsterhanteringseffekter,fönsterbyteseffekt,skrivbordsbyteseffekt,animeringar,skrivbordsanimeringar,drivrutiner,drivrutinsinställningar,återgivning,återge,inverteringseffekt,förstoringsglasseffekt,förstoringseffekt,låshjälpeffekt,musföljningseffekt,zoomeffekt,suddighetseffekt,borttoningseffekt,skrivbordstoningseffekt,fall sönder-effekt,glideffekt,markeringsfönstereffekt,inloggningseffekt,utloggningseffekt,magisk lanterneffekt,minimeringsanimeringseffekt, musmarkeringseffekt,inskalningseffekt, skärmbildseffekt, bladeffekt, bildeffekt, glidande ruteffekt,miniatyrbild vid sidan om,genomskinlighet,genomskinlighetseffekt, transparens, fönstergeometrieffekt, ostadiga fönstereffekt,startgensvarseffekt, dialogrutors ägareffekt,dämpa inaktiva effekt, dämpa skärmen effekt,glid tillbaka effekt,ögongodis,godis,visa ramar/s-effekt,visa uppritningseffekt,byte med ruta effekt, skrivbordskubeffekt, animeringseffekt för skrivbordskub,skrivbordsrutnätseffekt,blädderbyteseffekt,bakgrundskontrasteffekt,bling,borttoning,förflyttning,rörelse, översiktsfönstereffekt,handikappstöd,markör,pekare,mus,dölj markör,dölj marköreffekt,dölj pekare,dölj pekareffekt,dölj mus,dölj museffekt",
    "X-KDE-Keywords[tr]": "kwin,pencere,yönetici,efekt,3b efektler,3d efektler,2b efektler,2d efektler,grafik efektler,masaüstü efektleri,canlandırma,animasyon,çeşitli animasyon,çeşitli canlandırma,pencere yönetimi efektleri,pencere değiştirme efektleri,masaüstü canlandırmaları,masaüstü animasyonları,sürücüler,sürücü ayarları,sunum,oluşturma,çizim,ters çevir efekti,dürbün efekti,büyüteç efekti,tutturma yardımcısı efekti,fareyi izle efekti,yakınlaştırma efekti,bulanıklaştırma efekti,solma efekti,masaüstü solma efekti,düşme efekti,süzülme efekti,pencereyi vurgula efekti,oturum aç efekti,oturumu kapat efekti,sihirli lamba efekti,küçültme canlandırması,fare işareti efekti,ölçek efekti,ekran görüntüsü efekti,sayfa efekti,kaydırma efekti,kayan açılır pencereler efekti,küçük görsel yana efekti,yarısaydamlık,yarısaydamlık efekti,saydamlık,pencere geometrisi efekti,sallanan pencereler efekti,başlangıç bildirimi efekti,üst iletişim kutusu efekti,etkin olmayan pencereyi karart efekti,geri kaydır efekti,janjan efekti,FPS göster efekti,boyama efekti,küp efekti,küp canlandırması,küp animasyonu,masaüstü ızgarası efekti,pencereleri sun efekti,pencereyi yeniden boyutlandır efekti,arka plan karşıtlık efekti,solma,taşıma efekti,erişilebilirlik döşemesi,döşeme düzenleyicisi,imleç,işaretçi,imleci gizle,işaretçiyi gizle,fareyi gizle",
    "X-KDE-Keywords[uk]": "kwin,window,manager,effect,3D effects,2D effects,graphical effects,desktop effects,animations,various animations,window management effects,window switching effect,desktop switching effect,animations,desktop animations,drivers,driver settings,rendering,render,invert effect,looking glass effect,magnifier effect,snap helper effect,track mouse effect,zoom effect,blur effect,fade effect,fade desktop effect,fall apart effect,glide effect,highlight window effect,login effect,logout effect,magic lamp effect,minimize animation effect,mouse mark effect,scale effect,screenshot effect,sheet effect,slide effect,sliding popups effect,thumbnail aside effect,translucency,translucency effect,transparency,window geometry effect,wobbly windows effect,startup feedback effect,dialog parent effect,dim inactive effect,dim screen effect,slide back effect,eye candy,candy,show FPS effect,show paint effect,cover switch effect,desktop cube effect,desktop cube animation effect,desktop grid effect,flip switch effect,background contrast effect,bling,fading,movement,motion,overview windows effect,accessibility,cursor,pointer,mouse,hide cursor,hide cursor effect,hide pointer,hide pointer effect,hide mouse,hide mouse effect,квін,вікно,керування,ефект,просторові,плоскі,двовимірні,графічні ефекти,ефекти стільниці,анімації,різні анімації,ефекти керування вікнами,ефект перемикання вікон,ефект перемикання стільниць,анімації,стільничні анімації,драйвери,параметри драйверів,обробка,обробляти,ефект інвертування,ефект лупи,ефект збільшувального скла,ефект збільшення,ефект прилипання,ефект стеження за мишею,ефект масштабування,ефект розмивання,ефект притлумлення,ефект притлумлення стільниці,ефект розпадання,ефект ковзання,ефект підсвічування вікна,ефект входу,ефект виходу,ефект магічної лампи,ефект анімації мінімізації,ефект позначки миші,ефект масштабування,ефект знімка екрана,ефект зсування,ефект аркуша,ефект проковзування,ефект бічної мініатюри,прозорість,ефект прозорості,ефект геометрії вікна,ефект желе,ефект супроводу запуску,ефект батьківського вікна,ефект притлумення неактивного,ефект притлумлення екрана,зручність,показ частоти кадрів,ефект показу малювання,ефект перемикання обкладинок,ефект куба стільниць,ефект анімації куба стільниць,ефект таблиці стільниць,ефект перемикання дзеркал,ефект презентації вікон,ефект зміни розмірів вікон,ефект контрастності тла,тьмянішання,пересування,курсор,вказівник,приховування вказівника,ефект приховування вказівника,приховати вказівник,миша,ефект приховування миші",
    "X-KDE-Keywords[x-test]": "xxkwinxx,xxwindowxx,xxmanagerxx,xxeffectxx,xx3D effectsxx,xx2D effectsxx,xxgraphical effectsxx,xxdesktop effectsxx,xxanimationsxx,xxvarious animationsxx,xxwindow management effectsxx,xxwindow switching effectxx,xxdesktop switching effectxx,xxanimationsxx,xxdesktop animationsxx,xxdriversxx,xxdriver settingsxx,xxrenderingxx,xxrenderxx,xxinvert effectxx,xxlooking glass effectxx,xxmagnifier effectxx,xxsnap helper effectxx,xxtrack mouse effectxx,xxzoom effectxx,xxblur effectxx,xxfade effectxx,xxfade desktop effectxx,xxfall apart effectxx,xxglide effectxx,xxhighlight window effectxx,xxlogin effectxx,xxlogout effectxx,xxmagic lamp effectxx,xxminimize animation effectxx,xxmouse mark effectxx,xxscale effectxx,xxscreenshot effectxx,xxsheet effectxx,xxslide effectxx,xxsliding popups effectxx,xxthumbnail aside effectxx,xxtranslucencyxx,xxtranslucency effectxx,xxtransparencyxx,xxwindow geometry effectxx,xxwobbly windows effectxx,xxstartup feedback effectxx,xxdialog parent effectxx,xxdim inactive effectxx,xxdim screen effectxx,xxslide back effectxx,xxeye candyxx,xxcandyxx,xxshow FPS effectxx,xxshow paint effectxx,xxcover switch effectxx,xxdesktop cube effectxx,xxdesktop cube animation effectxx,xxdesktop grid effectxx,xxflip switch effectxx,xxbackground contrast effectxx,xxblingxx,xxfadingxx,xxmovementxx,xxmotionxx,xxoverview windows effectxx,xxaccessibilityxx,xxcursorxx,xxpointerxx,xxmousexx,xxhide cursorxx,xxhide cursor effectxx,xxhide pointerxx,xxhide pointer effectxx,xxhide mousexx,xxhide mouse effectxx",
    "X-KDE-Keywords[zh_CN]": "kwin,window,manager,effect,3D effects,2D effects,graphical effects,desktop effects,animations,various animations,window management effects,window switching effect,desktop switching effect,animations,desktop animations,drivers,driver settings,rendering,render,invert effect,looking glass effect,magnifier effect,snap helper effect,track mouse effect,zoom effect,blur effect,explosion effect,fade effect,fade desktop effect,fall apart effect,glide effect,highlight window kwin,window,manager,effect,3D effects,2D effects,graphical effects,desktop effects,animations,various animations,window management effects,window switching effect,desktop switching effect,animations,desktop animations,drivers,driver settings,rendering,render,invert effect,looking glass effect,magnifier effect,snap helper effect,track mouse effect,zoom effect,blur effect,fade effect,fade desktop effect,fall apart effect,glide effect,highlight window effect,login effect,logout effect,magic lamp effect,minimize animation effect,mouse mark effect,scale effect,screenshot effect,sheet effect,slide effect,sliding popups effect,thumbnail aside effect,translucency,translucency effect,transparency,window geometry effect,wobbly windows effect,startup feedback effect,dialog parent effect,dim inactive effect,dim screen effect,slide back effect,eye candy,candy,show FPS effect,show paint effect,cover switch effect,desktop cube effect,desktop cube animation effect,desktop grid effect,flip switch effect,present windows effect,resize window effect,background contrast effect,tile,tiling editor effect,cursor,pointer,mouse,hide cursor,hide cursor effect,hide pointer,hide pointer effect,hide mouse,hide mouse effect,chuangkou,guanli,texiao,3D texiao,2D texiao,tuxingtexiao,zhuomiantexiao,donghua,chuangkouguanlitexiao,chuangkouqiehuantexiao,zhuomianqiehuantexiao,zhuomiandonghua,qudong,qudiaoshezhi,xuanran,fanse,fangdajingtexiao,shubiaogenzong,suofangtexiao,mohutexiao,jianbiantexiao,posuitexiao,huadongtexiao,gaoliangchuangkou,denglutexiao,zhuxiaotexiao,shendengtexiao,zuixiaohuadonghua,shubiaobiaoji,jieping,piaoluo,huadongtanchuchuangkou,suolvetuzhibian,toumingtexiao,yaobaichuangkou,qidongfankuitexiao,chengxuqidongdongxiao,andanduihuakuangtexiao,andanpingmutexiao,shijuexiaoguo,xianshi FPS texiao,xianshihuizhiquyutexiao,fengmianqiehuantexiao,zhuomianlifangtitexiao,zhuomianlifangtidonghuatexiao,fanzhuanqiehuantexiao,zhanshichuangkoutexiao,tiaozhengchuangkoudaxiaotexiao,beijingduibitexiao,shanguang,shanyao,shandong,xiaoshi,jianbian,jianru,jianchu,dongtai,zonglan,gailan,chuangkougailantexiao,wuzhangai,fuzhugongneng,wuzhangaifuzhu,citie,pintie,cizhuan,tukuai,citiebianjiqixiaoguo,guangbiao,zhizhen,shubiao,yincangguangbiao,yincangguangbiaoxiaoguo,yincangzhizhen,yincangzhizhenxiaoguo,yincangshubiao,yincangshubiaoxiaoguo,窗口,管理,特效,3D 特效,2D 特效,图形特效,桌面特效,动画,窗口管理特效,窗口切换特效,桌面切换特效,桌面动画,驱动,去掉设置,渲染,反色,放大镜特效,鼠标跟踪,缩放特效,模糊特效,渐变特效,破碎特效,滑动特效,高亮窗口,登录特效,注销特效,神灯特效,最小化动画,鼠标标记,截屏,飘落,滑动弹出窗口,缩略图置边,透明特效,摇摆窗口,启动反馈特效,程序启动动效,黯淡对话框特效,黯淡屏幕特效,视觉效果,显示 FPS 特效,显示绘制区域特效,封面切换特效,桌面立方体特效,桌面立方体动画特效,翻转切换特效,背景对比特效,闪光,闪耀,闪动,消失,渐变,渐入,渐出,动态,总览,概览,窗口概览特效,无障碍,辅助功能,无障碍辅助,光标,指针,鼠标,隐藏光标,隐藏光标效果,隐藏指针,隐藏指针效果,隐藏鼠标,隐藏鼠标效果",
    "X-KDE-Keywords[zh_TW]": "kwin,視窗,視窗管理員,效果,3D 效果,2D 效果,圖形效果,桌面效果,動畫,各種動畫,視窗管理效果,視窗切換效果,桌面切換效果,桌面動畫,驅動程式,驅動程式設定,渲染,繪製,反轉效果,放大鏡效果,貼齊助手效果,追蹤滑鼠效果,縮放效果,模糊效果,淡化效果,淡化桌面效果,粉碎效果,滑行效果,突顯視窗效果,登入效果,登出效果,魔術燈效果,最小化動畫效果,滑鼠標記效果,螢幕截圖效果,薄紙效果,滑動效果,滑動彈出視窗效果,縮圖在一旁效果,透明效果,透明,視窗幾何效果,擺動視窗效果,啟動回饋效果,對話框上層效果,暗化非作用中效果,暗化螢幕效果,滑動到後方效果,裝飾,顯示FPS效果,顯示繪製效果,封面切換效果,桌面方塊效果,桌面方塊動畫效果,桌面格線效果,翻轉切換效果,背景對比效果,淡化,移動,總覽效果,無障礙使用,游標,指標,滑鼠,隱藏游標,隱藏游標效果,隱藏指標,隱藏指標效果,隱藏滑鼠,隱藏滑鼠效果",
    "X-KDE-System-Settings-Parent-Category": "windowmanagement",
    "X-KDE-Weight": 30
}
